module dockerlauncher

go 1.16

require (
	github.com/Microsoft/go-winio v0.4.16 // indirect
	github.com/containerd/containerd v1.4.4 // indirect
	github.com/docker/distribution v2.7.1+incompatible // indirect
	github.com/docker/docker v20.10.5+incompatible
	github.com/docker/go-connections v0.4.0 // indirect
	github.com/docker/go-units v0.4.0 // indirect
	github.com/gogo/protobuf v1.3.2 // indirect
	github.com/google/uuid v1.2.0 // indirect
	github.com/opencontainers/go-digest v1.0.0 // indirect
	github.com/opencontainers/image-spec v1.0.1 // indirect
	github.com/sirupsen/logrus v1.8.1 // indirect
	google.golang.org/grpc v1.36.0 // indirect
)
